Getting Started with Modeltime H2O • modeltime.h2o
…
Finally, we predict on the test dataset:

predict(model_fitted, test_tbl)
#> 
  |                                                                            
  |                                                                      |   0%
  |                                                                            
  |======================================================================| 100%
#> 
  |                                                                            
  |                                                                      |   0%
  |                                                                            
  |======================================================================| 100%
#> # A tibble: 84 x 1
#>      .pred
#>      <dbl>
#>  1  17881.
#>  2  29790.
#>  3  36609.
#>  4  40725.
#>  5  72954.
#>  6  81586.
#>  7 137680.
#>  8  17977.
#>  9  37988.
#> 10  37682.
#> # … with 74 more rows
…
